…
Because there has been no hyperparameter tuning, these results will
still be different with each run, so they’re just for fun. We can always
standardied results by using the `set.seed()` function.

    predictions = svm_fit %>%
      predict(new_data = val_proc, type = "prob") %>%
      bind_cols(WR_prediction_df)


    predictions %>% arrange(-.pred_Yes) %>% select(
      .pred_Yes, player, school, conf
    )

    ## # A tibble: 64 x 4
    ##    .pred_Yes player         school       conf    
    ##        <dbl> <chr>          <chr>        <chr>   
    ##  1     0.867 Joe Reed       Virginia     ACC     
    ##  2     0.837 CeeDee Lamb    Oklahoma     Big 12  
    ##  3     0.797 James Proche   SMU          American
    ##  4     0.771 Lynn Bowden    Kentucky     SEC     
    ##  5     0.725 Tyler Johnson  Minnesota    Big Ten 
    ##  6     0.684 Brandon Aiyuk  Arizona ST   Pac-12  
    ##  7     0.664 Aaron Parker   Rhode Island Non-CFB 
    ##  8     0.657 Jerry Jeudy    Alabama      SEC     
    ##  9     0.649 KJ Hamler      Penn ST      Big Ten 
    ## 10     0.641 John Hightower Boise ST     MWC     
    ## # … with 54 more rows
